# 1 "mcc_generated_files/fatfs/fatfs_demo.c"
# 1 "<built-in>" 1
# 1 "<built-in>" 3
# 288 "<built-in>" 3
# 1 "<command line>" 1
# 1 "<built-in>" 2
# 1 "C:/Program Files/Microchip/MPLABX/v6.00/packs/Microchip/PIC18F-K_DFP/1.5.114/xc8\\pic\\include\\language_support.h" 1 3
# 2 "<built-in>" 2
# 1 "mcc_generated_files/fatfs/fatfs_demo.c" 2
# 24 "mcc_generated_files/fatfs/fatfs_demo.c"
# 1 "mcc_generated_files/fatfs/ff.h" 1
# 29 "mcc_generated_files/fatfs/ff.h"
# 1 "mcc_generated_files/fatfs/integer.h" 1
# 16 "mcc_generated_files/fatfs/integer.h"
typedef int INT;
typedef unsigned int UINT;


typedef unsigned char BYTE;


typedef short SHORT;
typedef unsigned short WORD;
typedef unsigned short WCHAR;


typedef long LONG;
typedef unsigned long DWORD;


typedef unsigned long long QWORD;
# 29 "mcc_generated_files/fatfs/ff.h" 2

# 1 "mcc_generated_files/fatfs/ffconf.h" 1
# 30 "mcc_generated_files/fatfs/ff.h" 2
# 76 "mcc_generated_files/fatfs/ff.h"
typedef char TCHAR;
# 90 "mcc_generated_files/fatfs/ff.h"
typedef DWORD FSIZE_t;






typedef struct {
 BYTE fs_type;
 BYTE pdrv;
 BYTE n_fats;
 BYTE wflag;
 BYTE fsi_flag;
 WORD id;
 WORD n_rootdir;
 WORD csize;




 WCHAR* lfnbuf;
# 119 "mcc_generated_files/fatfs/ff.h"
 DWORD last_clst;
 DWORD free_clst;


 DWORD cdir;






 DWORD n_fatent;
 DWORD fsize;
 DWORD volbase;
 DWORD fatbase;
 DWORD dirbase;
 DWORD database;
 DWORD winsect;
 BYTE win[512];
} FATFS;





typedef struct {
 FATFS* fs;
 WORD id;
 BYTE attr;
 BYTE stat;
 DWORD sclust;
 FSIZE_t objsize;
# 161 "mcc_generated_files/fatfs/ff.h"
} FFOBJID;





typedef struct {
 FFOBJID obj;
 BYTE flag;
 BYTE err;
 FSIZE_t fptr;
 DWORD clust;
 DWORD sect;

 DWORD dir_sect;
 BYTE* dir_ptr;





 BYTE buf[512];

} FIL;





typedef struct {
 FFOBJID obj;
 DWORD dptr;
 DWORD clust;
 DWORD sect;
 BYTE* dir;
 BYTE fn[12];

 DWORD blk_ofs;




} FFDIR;





typedef struct {
 FSIZE_t fsize;
 WORD fdate;
 WORD ftime;
 BYTE fattrib;

 TCHAR altname[12 + 1];
 TCHAR fname[255 + 1];



} FILINFO;





typedef enum {
 FR_OK = 0,
 FR_DISK_ERR,
 FR_INT_ERR,
 FR_NOT_READY,
 FR_NO_FILE,
 FR_NO_PATH,
 FR_INVALID_NAME,
 FR_DENIED,
 FR_EXIST,
 FR_INVALID_OBJECT,
 FR_WRITE_PROTECTED,
 FR_INVALID_DRIVE,
 FR_NOT_ENABLED,
 FR_NO_FILESYSTEM,
 FR_MKFS_ABORTED,
 FR_TIMEOUT,
 FR_LOCKED,
 FR_NOT_ENOUGH_CORE,
 FR_TOO_MANY_OPEN_FILES,
 FR_INVALID_PARAMETER
} FRESULT;






FRESULT f_open (FIL* fp, const TCHAR* path, BYTE mode);
FRESULT f_close (FIL* fp);
FRESULT f_read (FIL* fp, void* buff, UINT btr, UINT* br);
FRESULT f_write (FIL* fp, const void* buff, UINT btw, UINT* bw);
FRESULT f_lseek (FIL* fp, FSIZE_t ofs);
FRESULT f_truncate (FIL* fp);
FRESULT f_sync (FIL* fp);
FRESULT f_opendir (FFDIR* dp, const TCHAR* path);
FRESULT f_closedir (FFDIR* dp);
FRESULT f_readdir (FFDIR* dp, FILINFO* fno);
FRESULT f_findfirst (FFDIR* dp, FILINFO* fno, const TCHAR* path, const TCHAR* pattern);
FRESULT f_findnext (FFDIR* dp, FILINFO* fno);
FRESULT f_mkdir (const TCHAR* path);
FRESULT f_unlink (const TCHAR* path);
FRESULT f_rename (const TCHAR* path_old, const TCHAR* path_new);
FRESULT f_stat (const TCHAR* path, FILINFO* fno);
FRESULT f_chmod (const TCHAR* path, BYTE attr, BYTE mask);
FRESULT f_utime (const TCHAR* path, const FILINFO* fno);
FRESULT f_chdir (const TCHAR* path);
FRESULT f_chdrive (const TCHAR* path);
FRESULT f_getcwd (TCHAR* buff, UINT len);
FRESULT f_getfree (const TCHAR* path, DWORD* nclst, FATFS** fatfs);
FRESULT f_getlabel (const TCHAR* path, TCHAR* label, DWORD* vsn);
FRESULT f_setlabel (const TCHAR* label);
FRESULT f_forward (FIL* fp, UINT(*func)(const BYTE*,UINT), UINT btf, UINT* bf);
FRESULT f_expand (FIL* fp, FSIZE_t szf, BYTE opt);
FRESULT f_mount (FATFS* fs, const TCHAR* path, BYTE opt);
FRESULT f_mkfs (const TCHAR* path, BYTE opt, DWORD au, void* work, UINT len);
FRESULT f_fdisk (BYTE pdrv, const DWORD* szt, void* work);
FRESULT f_setcp (WORD cp);
int f_putc (TCHAR c, FIL* fp);
int f_puts (const TCHAR* str, FIL* cp);
int f_printf (FIL* fp, const TCHAR* str, ...);
TCHAR* f_gets (TCHAR* buff, int len, FIL* fp);
# 315 "mcc_generated_files/fatfs/ff.h"
WCHAR ff_oem2uni (WCHAR oem, WORD cp);
WCHAR ff_uni2oem (DWORD uni, WORD cp);
DWORD ff_wtoupper (DWORD uni);
# 24 "mcc_generated_files/fatfs/fatfs_demo.c" 2

# 1 "mcc_generated_files/fatfs/../../mcc_generated_files/sd_spi/sd_spi.h" 1
# 25 "mcc_generated_files/fatfs/../../mcc_generated_files/sd_spi/sd_spi.h"
# 1 "C:\\Program Files\\Microchip\\xc8\\v2.36\\pic\\include\\c99\\stdint.h" 1 3



# 1 "C:\\Program Files\\Microchip\\xc8\\v2.36\\pic\\include\\c99\\musl_xc8.h" 1 3
# 4 "C:\\Program Files\\Microchip\\xc8\\v2.36\\pic\\include\\c99\\stdint.h" 2 3
# 22 "C:\\Program Files\\Microchip\\xc8\\v2.36\\pic\\include\\c99\\stdint.h" 3
# 1 "C:\\Program Files\\Microchip\\xc8\\v2.36\\pic\\include\\c99\\bits/alltypes.h" 1 3
# 127 "C:\\Program Files\\Microchip\\xc8\\v2.36\\pic\\include\\c99\\bits/alltypes.h" 3
typedef unsigned long uintptr_t;
# 142 "C:\\Program Files\\Microchip\\xc8\\v2.36\\pic\\include\\c99\\bits/alltypes.h" 3
typedef long intptr_t;
# 158 "C:\\Program Files\\Microchip\\xc8\\v2.36\\pic\\include\\c99\\bits/alltypes.h" 3
typedef signed char int8_t;




typedef short int16_t;




typedef __int24 int24_t;




typedef long int32_t;





typedef long long int64_t;
# 188 "C:\\Program Files\\Microchip\\xc8\\v2.36\\pic\\include\\c99\\bits/alltypes.h" 3
typedef long long intmax_t;





typedef unsigned char uint8_t;




typedef unsigned short uint16_t;




typedef __uint24 uint24_t;




typedef unsigned long uint32_t;





typedef unsigned long long uint64_t;
# 229 "C:\\Program Files\\Microchip\\xc8\\v2.36\\pic\\include\\c99\\bits/alltypes.h" 3
typedef unsigned long long uintmax_t;
# 22 "C:\\Program Files\\Microchip\\xc8\\v2.36\\pic\\include\\c99\\stdint.h" 2 3


typedef int8_t int_fast8_t;

typedef int64_t int_fast64_t;


typedef int8_t int_least8_t;
typedef int16_t int_least16_t;

typedef int24_t int_least24_t;
typedef int24_t int_fast24_t;

typedef int32_t int_least32_t;

typedef int64_t int_least64_t;


typedef uint8_t uint_fast8_t;

typedef uint64_t uint_fast64_t;


typedef uint8_t uint_least8_t;
typedef uint16_t uint_least16_t;

typedef uint24_t uint_least24_t;
typedef uint24_t uint_fast24_t;

typedef uint32_t uint_least32_t;

typedef uint64_t uint_least64_t;
# 144 "C:\\Program Files\\Microchip\\xc8\\v2.36\\pic\\include\\c99\\stdint.h" 3
# 1 "C:\\Program Files\\Microchip\\xc8\\v2.36\\pic\\include\\c99\\bits/stdint.h" 1 3
typedef int16_t int_fast16_t;
typedef int32_t int_fast32_t;
typedef uint16_t uint_fast16_t;
typedef uint32_t uint_fast32_t;
# 144 "C:\\Program Files\\Microchip\\xc8\\v2.36\\pic\\include\\c99\\stdint.h" 2 3
# 25 "mcc_generated_files/fatfs/../../mcc_generated_files/sd_spi/sd_spi.h" 2

# 1 "C:\\Program Files\\Microchip\\xc8\\v2.36\\pic\\include\\c99\\stdbool.h" 1 3
# 26 "mcc_generated_files/fatfs/../../mcc_generated_files/sd_spi/sd_spi.h" 2
# 86 "mcc_generated_files/fatfs/../../mcc_generated_files/sd_spi/sd_spi.h"
_Bool SD_SPI_IsMediaInitialized(void);
_Bool SD_SPI_MediaInitialize(void);
_Bool SD_SPI_IsMediaPresent(void);
_Bool SD_SPI_IsWriteProtected(void);
uint16_t SD_SPI_GetSectorSize(void);
uint32_t SD_SPI_GetSectorCount(void);
# 123 "mcc_generated_files/fatfs/../../mcc_generated_files/sd_spi/sd_spi.h"
_Bool SD_SPI_SectorRead(uint32_t sector_address, uint8_t* buffer, uint16_t sector_count);
# 154 "mcc_generated_files/fatfs/../../mcc_generated_files/sd_spi/sd_spi.h"
_Bool SD_SPI_SectorWrite(uint32_t sector_address, const uint8_t* buffer, uint16_t sector_count);
# 25 "mcc_generated_files/fatfs/fatfs_demo.c" 2


static FATFS drive;
static FIL file;

void FatFsDemo_Tasks(void)
{
    UINT actualLength;
    char data[] = "Soy el papu de todos los papus!";
    if( SD_SPI_IsMediaPresent() == 0)
    {
        return;
    }

    if (f_mount(&drive,"0:",1) == FR_OK)
    {
        if (f_open(&file, "Papu.TXT", 0x02 | 0x04 ) == FR_OK)
        {
            f_write(&file, data, sizeof(data)-1, &actualLength );
            f_close(&file);
        }

        f_mount(0,"0:",0);
    }
}
