# 1 "mcc_generated_files/fatfs/ffunicode.c"
# 1 "<built-in>" 1
# 1 "<built-in>" 3
# 288 "<built-in>" 3
# 1 "<command line>" 1
# 1 "<built-in>" 2
# 1 "C:/Program Files/Microchip/MPLABX/v6.00/packs/Microchip/PIC18F-K_DFP/1.5.114/xc8\\pic\\include\\language_support.h" 1 3
# 2 "<built-in>" 2
# 1 "mcc_generated_files/fatfs/ffunicode.c" 2
# 26 "mcc_generated_files/fatfs/ffunicode.c"
# 1 "mcc_generated_files/fatfs/ff.h" 1
# 29 "mcc_generated_files/fatfs/ff.h"
# 1 "mcc_generated_files/fatfs/integer.h" 1
# 16 "mcc_generated_files/fatfs/integer.h"
typedef int INT;
typedef unsigned int UINT;


typedef unsigned char BYTE;


typedef short SHORT;
typedef unsigned short WORD;
typedef unsigned short WCHAR;


typedef long LONG;
typedef unsigned long DWORD;


typedef unsigned long long QWORD;
# 29 "mcc_generated_files/fatfs/ff.h" 2

# 1 "mcc_generated_files/fatfs/ffconf.h" 1
# 30 "mcc_generated_files/fatfs/ff.h" 2
# 76 "mcc_generated_files/fatfs/ff.h"
typedef char TCHAR;
# 90 "mcc_generated_files/fatfs/ff.h"
typedef DWORD FSIZE_t;






typedef struct {
 BYTE fs_type;
 BYTE pdrv;
 BYTE n_fats;
 BYTE wflag;
 BYTE fsi_flag;
 WORD id;
 WORD n_rootdir;
 WORD csize;




 WCHAR* lfnbuf;
# 119 "mcc_generated_files/fatfs/ff.h"
 DWORD last_clst;
 DWORD free_clst;


 DWORD cdir;






 DWORD n_fatent;
 DWORD fsize;
 DWORD volbase;
 DWORD fatbase;
 DWORD dirbase;
 DWORD database;
 DWORD winsect;
 BYTE win[512];
} FATFS;





typedef struct {
 FATFS* fs;
 WORD id;
 BYTE attr;
 BYTE stat;
 DWORD sclust;
 FSIZE_t objsize;
# 161 "mcc_generated_files/fatfs/ff.h"
} FFOBJID;





typedef struct {
 FFOBJID obj;
 BYTE flag;
 BYTE err;
 FSIZE_t fptr;
 DWORD clust;
 DWORD sect;

 DWORD dir_sect;
 BYTE* dir_ptr;





 BYTE buf[512];

} FIL;





typedef struct {
 FFOBJID obj;
 DWORD dptr;
 DWORD clust;
 DWORD sect;
 BYTE* dir;
 BYTE fn[12];

 DWORD blk_ofs;




} FFDIR;





typedef struct {
 FSIZE_t fsize;
 WORD fdate;
 WORD ftime;
 BYTE fattrib;

 TCHAR altname[12 + 1];
 TCHAR fname[255 + 1];



} FILINFO;





typedef enum {
 FR_OK = 0,
 FR_DISK_ERR,
 FR_INT_ERR,
 FR_NOT_READY,
 FR_NO_FILE,
 FR_NO_PATH,
 FR_INVALID_NAME,
 FR_DENIED,
 FR_EXIST,
 FR_INVALID_OBJECT,
 FR_WRITE_PROTECTED,
 FR_INVALID_DRIVE,
 FR_NOT_ENABLED,
 FR_NO_FILESYSTEM,
 FR_MKFS_ABORTED,
 FR_TIMEOUT,
 FR_LOCKED,
 FR_NOT_ENOUGH_CORE,
 FR_TOO_MANY_OPEN_FILES,
 FR_INVALID_PARAMETER
} FRESULT;






FRESULT f_open (FIL* fp, const TCHAR* path, BYTE mode);
FRESULT f_close (FIL* fp);
FRESULT f_read (FIL* fp, void* buff, UINT btr, UINT* br);
FRESULT f_write (FIL* fp, const void* buff, UINT btw, UINT* bw);
FRESULT f_lseek (FIL* fp, FSIZE_t ofs);
FRESULT f_truncate (FIL* fp);
FRESULT f_sync (FIL* fp);
FRESULT f_opendir (FFDIR* dp, const TCHAR* path);
FRESULT f_closedir (FFDIR* dp);
FRESULT f_readdir (FFDIR* dp, FILINFO* fno);
FRESULT f_findfirst (FFDIR* dp, FILINFO* fno, const TCHAR* path, const TCHAR* pattern);
FRESULT f_findnext (FFDIR* dp, FILINFO* fno);
FRESULT f_mkdir (const TCHAR* path);
FRESULT f_unlink (const TCHAR* path);
FRESULT f_rename (const TCHAR* path_old, const TCHAR* path_new);
FRESULT f_stat (const TCHAR* path, FILINFO* fno);
FRESULT f_chmod (const TCHAR* path, BYTE attr, BYTE mask);
FRESULT f_utime (const TCHAR* path, const FILINFO* fno);
FRESULT f_chdir (const TCHAR* path);
FRESULT f_chdrive (const TCHAR* path);
FRESULT f_getcwd (TCHAR* buff, UINT len);
FRESULT f_getfree (const TCHAR* path, DWORD* nclst, FATFS** fatfs);
FRESULT f_getlabel (const TCHAR* path, TCHAR* label, DWORD* vsn);
FRESULT f_setlabel (const TCHAR* label);
FRESULT f_forward (FIL* fp, UINT(*func)(const BYTE*,UINT), UINT btf, UINT* bf);
FRESULT f_expand (FIL* fp, FSIZE_t szf, BYTE opt);
FRESULT f_mount (FATFS* fs, const TCHAR* path, BYTE opt);
FRESULT f_mkfs (const TCHAR* path, BYTE opt, DWORD au, void* work, UINT len);
FRESULT f_fdisk (BYTE pdrv, const DWORD* szt, void* work);
FRESULT f_setcp (WORD cp);
int f_putc (TCHAR c, FIL* fp);
int f_puts (const TCHAR* str, FIL* cp);
int f_printf (FIL* fp, const TCHAR* str, ...);
TCHAR* f_gets (TCHAR* buff, int len, FIL* fp);
# 315 "mcc_generated_files/fatfs/ff.h"
WCHAR ff_oem2uni (WCHAR oem, WORD cp);
WCHAR ff_uni2oem (DWORD uni, WORD cp);
DWORD ff_wtoupper (DWORD uni);
# 26 "mcc_generated_files/fatfs/ffunicode.c" 2
# 15013 "mcc_generated_files/fatfs/ffunicode.c"
static const WCHAR uc437[] = {
 0x00C7, 0x00FC, 0x00E9, 0x00E2, 0x00E4, 0x00E0, 0x00E5, 0x00E7, 0x00EA, 0x00EB, 0x00E8, 0x00EF, 0x00EE, 0x00EC, 0x00C4, 0x00C5,
 0x00C9, 0x00E6, 0x00C6, 0x00F4, 0x00F6, 0x00F2, 0x00FB, 0x00F9, 0x00FF, 0x00D6, 0x00DC, 0x00A2, 0x00A3, 0x00A5, 0x20A7, 0x0192,
 0x00E1, 0x00ED, 0x00F3, 0x00FA, 0x00F1, 0x00D1, 0x00AA, 0x00BA, 0x00BF, 0x2310, 0x00AC, 0x00BD, 0x00BC, 0x00A1, 0x00AB, 0x00BB,
 0x2591, 0x2592, 0x2593, 0x2502, 0x2524, 0x2561, 0x2562, 0x2556, 0x2555, 0x2563, 0x2551, 0x2557, 0x255D, 0x255C, 0x255B, 0x2510,
 0x2514, 0x2534, 0x252C, 0x251C, 0x2500, 0x253C, 0x255E, 0x255F, 0x255A, 0x2554, 0x2569, 0x2566, 0x2560, 0x2550, 0x256C, 0x2567,
 0x2568, 0x2564, 0x2565, 0x2559, 0x2558, 0x2552, 0x2553, 0x256B, 0x256A, 0x2518, 0x250C, 0x2588, 0x2584, 0x258C, 0x2590, 0x2580,
 0x03B1, 0x00DF, 0x0393, 0x03C0, 0x03A3, 0x03C3, 0x00B5, 0x03C4, 0x03A6, 0x0398, 0x03A9, 0x03B4, 0x221E, 0x03C6, 0x03B5, 0x2229,
 0x2261, 0x00B1, 0x2265, 0x2264, 0x2320, 0x2321, 0x00F7, 0x2248, 0x00B0, 0x2219, 0x00B7, 0x221A, 0x207F, 0x00B2, 0x25A0, 0x00A0
};
# 15226 "mcc_generated_files/fatfs/ffunicode.c"
WCHAR ff_uni2oem (
 DWORD uni,
 WORD cp
)
{
 WCHAR c = 0;
 const WCHAR *p = uc437;


 if (uni < 0x80) {
  c = (WCHAR)uni;

 } else {
  if (uni < 0x10000 && cp == 437) {
   for (c = 0; c < 0x80 && uni != p[c]; c++) ;
   c = (c + 0x80) & 0xFF;
  }
 }

 return c;
}

WCHAR ff_oem2uni (
 WCHAR oem,
 WORD cp
)
{
 WCHAR c = 0;
 const WCHAR *p = uc437;


 if (oem < 0x80) {
  c = oem;

 } else {
  if (cp == 437) {
   if (oem < 0x100) c = p[oem - 0x80];
  }
 }

 return c;
}
# 15468 "mcc_generated_files/fatfs/ffunicode.c"
DWORD ff_wtoupper (
 DWORD uni
)
{
 const WORD *p;
 WORD uc, bc, nc, cmd;
 static const WORD cvt1[] = {

  0x0061,0x031A,

  0x00E0,0x0317,
  0x00F8,0x0307,
  0x00FF,0x0001,0x0178,

  0x0100,0x0130,
  0x0132,0x0106,
  0x0139,0x0110,
  0x014A,0x012E,
  0x0179,0x0106,

  0x0180,0x004D,0x0243,0x0181,0x0182,0x0182,0x0184,0x0184,0x0186,0x0187,0x0187,0x0189,0x018A,0x018B,0x018B,0x018D,0x018E,0x018F,0x0190,0x0191,0x0191,0x0193,0x0194,0x01F6,0x0196,0x0197,0x0198,0x0198,0x023D,0x019B,0x019C,0x019D,0x0220,0x019F,0x01A0,0x01A0,0x01A2,0x01A2,0x01A4,0x01A4,0x01A6,0x01A7,0x01A7,0x01A9,0x01AA,0x01AB,0x01AC,0x01AC,0x01AE,0x01AF,0x01AF,0x01B1,0x01B2,0x01B3,0x01B3,0x01B5,0x01B5,0x01B7,0x01B8,0x01B8,0x01BA,0x01BB,0x01BC,0x01BC,0x01BE,0x01F7,0x01C0,0x01C1,0x01C2,0x01C3,0x01C4,0x01C5,0x01C4,0x01C7,0x01C8,0x01C7,0x01CA,0x01CB,0x01CA,
  0x01CD,0x0110,
  0x01DD,0x0001,0x018E,
  0x01DE,0x0112,
  0x01F3,0x0003,0x01F1,0x01F4,0x01F4,
  0x01F8,0x0128,
  0x0222,0x0112,
  0x023A,0x0009,0x2C65,0x023B,0x023B,0x023D,0x2C66,0x023F,0x0240,0x0241,0x0241,
  0x0246,0x010A,

  0x0253,0x0040,0x0181,0x0186,0x0255,0x0189,0x018A,0x0258,0x018F,0x025A,0x0190,0x025C,0x025D,0x025E,0x025F,0x0193,0x0261,0x0262,0x0194,0x0264,0x0265,0x0266,0x0267,0x0197,0x0196,0x026A,0x2C62,0x026C,0x026D,0x026E,0x019C,0x0270,0x0271,0x019D,0x0273,0x0274,0x019F,0x0276,0x0277,0x0278,0x0279,0x027A,0x027B,0x027C,0x2C64,0x027E,0x027F,0x01A6,0x0281,0x0282,0x01A9,0x0284,0x0285,0x0286,0x0287,0x01AE,0x0244,0x01B1,0x01B2,0x0245,0x028D,0x028E,0x028F,0x0290,0x0291,0x01B7,

  0x037B,0x0003,0x03FD,0x03FE,0x03FF,
  0x03AC,0x0004,0x0386,0x0388,0x0389,0x038A,
  0x03B1,0x0311,
  0x03C2,0x0002,0x03A3,0x03A3,
  0x03C4,0x0308,
  0x03CC,0x0003,0x038C,0x038E,0x038F,
  0x03D8,0x0118,
  0x03F2,0x000A,0x03F9,0x03F3,0x03F4,0x03F5,0x03F6,0x03F7,0x03F7,0x03F9,0x03FA,0x03FA,

  0x0430,0x0320,
  0x0450,0x0710,
  0x0460,0x0122,
  0x048A,0x0136,
  0x04C1,0x010E,
  0x04CF,0x0001,0x04C0,
  0x04D0,0x0144,

  0x0561,0x0426,

  0x0000
 };
 static const WORD cvt2[] = {

  0x1D7D,0x0001,0x2C63,

  0x1E00,0x0196,
  0x1EA0,0x015A,

  0x1F00,0x0608,
  0x1F10,0x0606,
  0x1F20,0x0608,
  0x1F30,0x0608,
  0x1F40,0x0606,
  0x1F51,0x0007,0x1F59,0x1F52,0x1F5B,0x1F54,0x1F5D,0x1F56,0x1F5F,
  0x1F60,0x0608,
  0x1F70,0x000E,0x1FBA,0x1FBB,0x1FC8,0x1FC9,0x1FCA,0x1FCB,0x1FDA,0x1FDB,0x1FF8,0x1FF9,0x1FEA,0x1FEB,0x1FFA,0x1FFB,
  0x1F80,0x0608,
  0x1F90,0x0608,
  0x1FA0,0x0608,
  0x1FB0,0x0004,0x1FB8,0x1FB9,0x1FB2,0x1FBC,
  0x1FCC,0x0001,0x1FC3,
  0x1FD0,0x0602,
  0x1FE0,0x0602,
  0x1FE5,0x0001,0x1FEC,
  0x1FF3,0x0001,0x1FFC,

  0x214E,0x0001,0x2132,

  0x2170,0x0210,
  0x2184,0x0001,0x2183,

  0x24D0,0x051A,
  0x2C30,0x042F,

  0x2C60,0x0102,
  0x2C67,0x0106, 0x2C75,0x0102,

  0x2C80,0x0164,

  0x2D00,0x0826,

  0xFF41,0x031A,

  0x0000
 };


 if (uni < 0x10000) {
  uc = (WORD)uni;
  p = uc < 0x1000 ? cvt1 : cvt2;
  for (;;) {
   bc = *p++;
   if (bc == 0 || uc < bc) break;
   nc = *p++; cmd = nc >> 8; nc &= 0xFF;
   if (uc < bc + nc) {
    switch (cmd) {
    case 0: uc = p[uc - bc]; break;
    case 1: uc -= (uc - bc) & 1; break;
    case 2: uc -= 16; break;
    case 3: uc -= 32; break;
    case 4: uc -= 48; break;
    case 5: uc -= 26; break;
    case 6: uc += 8; break;
    case 7: uc -= 80; break;
    case 8: uc -= 0x1C60; break;
    }
    break;
   }
   if (cmd == 0) p += nc;
  }
  uni = uc;
 }

 return uni;
}
